{
    "input_file": "../../datasets/em_calorimeter_shower_images/calorimetry.root",
    "signal_trees": ["eplus"],
    "background_trees": ["gamma"],

    "output_root": "paper_bdt.root",

    "variables": ["E0",
		  "showerDepthWidth",
		  "E1frac",
		  "showerDepth"],
    
    "MethodOptions": ["NTrees=100",
		      "MaxDepth=4",
		      "BoostType=AdaBoost",
		      "UseYesNoLeaf=True"],

    "SplitOptions": ["nTrain_Signal=0",
                     "nTrain_Background=0",
                     "SplitMode=Random",
                     "NormMode=NumEvents"]
}
